{
  "_embedded" : {
    "accessions" : [
      "SAMEA6376679",
      "SAMEA6376682",
      "SAMEA6376980"
    ]
  },
  "_links" : {
    "first" : {
      "href" : "https://wwwdev.ebi.ac.uk/biosamples/accessions?filter=attr:project:IMAGE&page=0&size=3"
    },
    "self" : {
      "href" : "https://wwwdev.ebi.ac.uk/biosamples/accessions?filter=attr:project:IMAGE&page=0&size=3"
    },
    "next" : {
      "href" : "https://wwwdev.ebi.ac.uk/biosamples/accessions?filter=attr:project:IMAGE&page=1&size=3"
    },
    "last" : {
      "href" : "https://wwwdev.ebi.ac.uk/biosamples/accessions?filter=attr:project:IMAGE&page=1&size=3"
    }
  },
  "page" : {
    "size" : 3,
    "totalElements" : 6,
    "totalPages" : 2,
    "number" : 0
  }
}
